{
  "$schema": "https://schema.management.azure.com/schemas/2015-01-01/deploymentTemplate.json#",
  "contentVersion": "1.0.0.0",
  "parameters": {
    "_artifactsLocation": {
      "type": "string"
    },
    "_artifactsLocationSasToken": {
      "type": "securestring"
    }},
  "variables": {
    "masterAMIdeploymentTemplateFolder": "nestedtemplates",
    "masterAMIdeploymentTemplateFileName": "masterAMIdeployment.json",
    "masterAMIdeploymentTemplateParametersFileName": "masterAMIdeployment.parameters.json"},
  "resources": [
    {
      "name": "masterAMIdeployment",
      "type": "Microsoft.Resources/deployments",
      "apiVersion": "2016-09-01",
      "dependsOn": [ ],
      "properties": {
        "mode": "Incremental",
        "templateLink": {
          "uri": "[concat(parameters('_artifactsLocation'), '/', variables('masterAMIdeploymentTemplateFolder'), '/', variables('masterAMIdeploymentTemplateFileName'), parameters('_artifactsLocationSasToken'))]",
          "contentVersion": "1.0.0.0"
        },
        "parametersLink": {
          "uri": "[concat(parameters('_artifactsLocation'), '/', variables('masterAMIdeploymentTemplateFolder'), '/', variables('masterAMIdeploymentTemplateParametersFileName'), parameters('_artifactsLocationSasToken'))]",
          "contentVersion": "1.0.0.0"
        }
      }
    }],
  "outputs": {}
}
