{
  "$schema": "https://schema.management.azure.com/schemas/2015-01-01/deploymentParameters.json#",
  "contentVersion": "1.0.0.0",
  "parameters": {
    "sqlservertoupdateAdminLogin": {
      "value": "amisa"
    },
    "sqldbtoupdateName": {
      "value": "amidb"
    },
    "appserviceplantoupdateName": {
      "value": "amiAppPlan"
    },
    "appserviceplantoupdateSkuName": {
      "value": "S1"
    },
    "clientAlias": {
      "value": "ami"
    },
    "storageaccounttoupdateType": {
      "value": "Standard_LRS"
    },
    "sqlservertoupdateAdminLoginPassword": {
      "value": "PA$5wordPA$5word"
    }
  }
}